{	
	"products": [	
	{	
    "id": 1,	
    "name": "The Global X",	
      "description": "By Shevlin",	
      "price": "49,95",	
      "display_price": "49,95 €",	
      "available_on": "2012-10-17T03:43:57Z",	
      "slug": "slug?",	
      "meta_description": null,
      "meta_keywords": null,	
      "shipping_category_id": 1,	
      "taxon_ids": [	
        4	
      ],	
      "master": {	
        "id": 1,	
        "name": "Ruby on Rails Tote",	
        "sku": "ROR-00011",	
        "price": "15.99",	
        "weight": null,	
        "height": null,	
        "width": null,	
        "depth": null,	
        "is_master": true,	
        "slug": "ruby-on-rails-tote",	
        "description": "A text description of the product.",	
        "track_inventory": true,	
        "cost_price": null,	
        "option_values": [	
          {	
            "id": 1,	
            "name": "Small",	
            "presentation": "S",	
            "option_type_name": "tshirt-size",	
            "option_type_id": 1,	
            "option_type_presentation": "S"	
          }	
        ],	
        "images": [	
          {	
            "id": 1,	
            "position": 1,	
            "attachment_content_type": "image/jpg",	
            "large_url": "/assets/api/prods/imgs/dark_front.jpg",	
            "type": "Spree::Image",	
            "attachment_updated_at": null,	
            "attachment_width": 360,	
            "attachment_height": 360,	
            "alt": null,	
            "viewable_type": "Spree::Variant",	
            "viewable_id": 1	
          }	
        ],	
        "display_price": "49,95 €",	
        "options_text": "(Size: small, Colour: red)",	
        "in_stock": true,	
        "is_backorderable": true,	
        "is_orderable": true,	
        "total_on_hand": 10,	
        "is_destroyed": false	
      },	
      "variants": [	
        {	
          "id": 1,	
          "name": "Ruby on Rails Tote",	
          "sku": "ROR-00011",	
          "price": "15.99",	
          "weight": null,	
          "height": null,	
          "width": null,	
          "depth": null,	
          "is_master": false,	
          "slug": "ruby-on-rails-tote",	
          "description": "A text description of the product.",	
          "track_inventory": true,	
          "cost_price": null,	
          "option_values": [	
            {	
              "id": 1,	
              "name": "Small",	
              "presentation": "S",	
              "option_type_name": "tshirt-size",	
              "option_type_id": 1,	
              "option_type_presentation": "S"	
            }	
          ],	
          "images": [	
            {	
              "id": 1,	
              "position": 1,	
              "attachment_content_type": "image/jpg",	
              "large_url": "/assets/api/prods/imgs/dark_front.jpg",
              "type": "Spree::Image",	
              "attachment_updated_at": null,	
              "attachment_width": 360,	
              "attachment_height": 360,	
              "alt": null,	
              "viewable_type": "Spree::Variant",	
              "viewable_id": 1	
            }	
          ],	
          "display_price": "$15.99",	
          "options_text": "(Size: small, Colour: red)",	
          "in_stock": true,	
          "is_backorderable": true,	
          "is_orderable": true,	
          "total_on_hand": 10,	
          "is_destroyed": false	
        }	
      ],	

      "has_variants": true	
  }
  ],	
  "count": 25,	
  "pages": 5,	
  "current_page": 1	
} 